…
Para obtener el total de las facturas de cada uno de los países:


```r
res <- invoices %>% group_by(BillingCountry) %>% 
          summarise(n = n(), total = sum(Total, na.rm = TRUE))
# show_query(res)
res  %>% collect
```

```
## # A tibble: 24 x 3
##    BillingCountry     n total
##    <chr>          <int> <dbl>
##  1 Argentina          7  37.6
##  2 Australia          7  37.6
##  3 Austria            7  42.6
##  4 Belgium            7  37.6
##  5 Brazil            35 190. 
##  6 Canada            56 304. 
##  7 Chile              7  46.6
##  8 Czech Republic    14  90.2
##  9 Denmark            7  37.6
## 10 Finland            7  41.6
## # ... with 14 more rows
```
…
```r
res  %>% collect
```

```
## # A tibble: 412 x 4
##    FirstName LastName  Country Total
##    <chr>     <chr>     <chr>   <dbl>
##  1 Luís      Gonçalves Brazil   3.98
##  2 Luís      Gonçalves Brazil   3.96
##  3 Luís      Gonçalves Brazil   5.94
##  4 Luís      Gonçalves Brazil   0.99
##  5 Luís      Gonçalves Brazil   1.98
##  6 Luís      Gonçalves Brazil  13.9 
##  7 Luís      Gonçalves Brazil   8.91
##  8 Leonie    Köhler    Germany  1.98
##  9 Leonie    Köhler    Germany 13.9 
## 10 Leonie    Köhler    Germany  8.91
## # ... with 402 more rows
```
…
