5.6 Bases de datos con dplyr | Notas de Programación en R
…
## # A tibble: 1 x 3
##     min   max   med
##   <dbl> <dbl> <dbl>
## 1  0.99  25.9  5.65

Para obtener el total de las facturas de cada uno de los países:

res <- invoices %>% group_by(BillingCountry) %>% 
          summarise(n = n(), total = sum(Total, na.rm = TRUE))
# show_query(res)
res  %>% collect

## # A tibble: 24 x 3
##    BillingCountry     n total
##    <chr>          <int> <dbl>
##  1 Argentina          7  37.6
##  2 Australia          7  37.6
##  3 Austria            7  42.6
##  4 Belgium            7  37.6
##  5 Brazil            35 190. 
##  6 Canada            56 304. 
##  7 Chile              7  46.6
##  8 Czech Republic    14  90.2
##  9 Denmark            7  37.6
## 10 Finland            7  41.6
## # ... with 14 more rows
…
res <- customers %>% inner_join(invoices, by = "CustomerId") %>% select(FirstName, LastName, Country, Total) 
show_query(res)

## <SQL>
## SELECT `FirstName`, `LastName`, `Country`, `Total`
## FROM (SELECT `LHS`.`CustomerId` AS `CustomerId`, `FirstName`, `LastName`, `Company`, `Address`, `City`, `State`, `Country`, `PostalCode`, `Phone`, `Fax`, `Email`, `SupportRepId`, `InvoiceId`, `InvoiceDate`, `BillingAddress`, `BillingCity`, `BillingState`, `BillingCountry`, `BillingPostalCode`, `Total`
## FROM `customers` AS `LHS`
## INNER JOIN `invoices` AS `RHS`
## ON (`LHS`.`CustomerId` = `RHS`.`CustomerId`)
## )

res  %>% collect

## # A tibble: 412 x 4
##    FirstName LastName  Country Total
##    <chr>     <chr>     <chr>   <dbl>
##  1 Luís      Gonçalves Brazil   3.98
##  2 Luís      Gonçalves Brazil   3.96
##  3 Luís      Gonçalves Brazil   5.94
##  4 Luís      Gonçalves Brazil   0.99
##  5 Luís      Gonçalves Brazil   1.98
##  6 Luís      Gonçalves Brazil  13.9 
##  7 Luís      Gonçalves Brazil   8.91
##  8 Leonie    Köhler    Germany  1.98
##  9 Leonie    Köhler    Germany 13.9 
## 10 Leonie    Köhler    Germany  8.91
## # ... with 402 more rows
…
